[{{ range $index, $page := .Site.Pages }}
{{- if ne $page.Type "json" -}}
{{- if and $index (gt $index 0) -}},{{- end }}
{
	"u": "{{ $page.RelPermalink }}",
	"t": {{trim (partial "h1" $page) "\n"| jsonify}},
	"c": {{$page.Plain | jsonify}}
}
{{- end -}}
{{- end -}}]
